<?xml version="1.0" encoding="utf-8"?>
<!-- Generator: Adobe Illustrator 18.0.0, SVG Export Plug-In . SVG Version: 6.00 Build 0)  -->
<!DOCTYPE svg PUBLIC "-//W3C//DTD SVG 1.1//EN" "http://www.w3.org/Graphics/SVG/1.1/DTD/svg11.dtd">
<svg version="1.1" id="Layer_1" xmlns="http://www.w3.org/2000/svg" xmlns:xlink="http://www.w3.org/1999/xlink" x="0px" y="0px"
	 viewBox="0 0 156 55" enable-background="new 0 0 156 55" xml:space="preserve">
<path d="M2,33.7c2.3,3,5.5,2.6,8.5,1.4c2.2-0.9,4.3-2,6.1-3.5c1.5-1.2,4.3-4,3.2-6.1c-0.7-1.2-2.2-0.7-4.1-0.8c-4-0.2-2.8-2-1.3-3.9
	c1.2-0.8,2.5-1.5,3.3,0.2l1-2.9c-2.4-1.4-3.8,0-5,1.4c-2.9,3.4-3.6,9.2,3.2,7.9c0.9-0.2,1.8,0.2,1,1.2c-0.6,0.7-1.7,1.2-2.4,1.5
	c-2,1.1-4.3,2.1-5.9,2.6c-2.2,0.7-4.4,1-6.3-0.7c-2.2-1.9-1.8-4.2-0.7-8.3c0.2-0.3,0.4-0.5,0.6-0.7c1.3-1.3,2-1.6,2.3-4.1
	c0.2-1.4-0.1-2.1-0.7-0.2c-0.6,1.9-2.1,3-3.1,0c-1-3,1.2-6.2,2.9-8.8C5,9.5,5.5,8.3,4.5,9.5C1,13.5-2.2,19.3,2,23.8
	C-0.1,28.1,0.3,31.6,2,33.7z M8.5,9.5c1.1,1.6,1.1,2.6-0.1,4.8c-0.5,1-1,2.1-0.8,3.2c0.5,3.4,3,3.1,3.2,0.4c0.1-0.5,0.1-0.9-0.2-1.3
	c-0.2-0.2-0.3,0.8-0.4,1c-0.5,1.4-1.5,1.2-1.9-0.2c-0.3-1.3,0.9-3,1.4-4.3c0.5-1.5,0.8-3.2,1.1-4.1c0.1-0.3,0.4-0.5,0.6-0.7
	c0.3-0.2,0.4-0.1,0.5,0.3l0.1,0.4c0.2,0.7,0.1,0.6,0.7,0.2c0.4-0.3,0.3-0.2,0.2-0.6c-0.1-0.5-0.2-0.8-0.5-1.3l-0.2-0.5
	c-0.6-1.2-1.1-1.2-1.5,0.1c-0.2,0.9-0.4,1.7-0.6,2.6C9.6,8.6,9.1,7.7,8.5,6.7C8.3,6.3,8.1,6,7.7,6.4C7.3,6.9,6.9,7.2,7.1,7.9
	C7.2,8.5,7.8,8.6,8.5,9.5z M7.1,37l-1.4,2l-2.3-1.5L2,39.7L5,42l1.4-1.8l2.1,1.2L10,39L7.1,37z M23.8,19.2c-1.4-1.2-0.8,2.2-1.9,2.1
	c-0.1,0-0.1-0.1-0.2-0.3c-0.2-0.6-0.5-1.4-0.9-1.5c-0.2-0.1-0.2,0-0.4,0.3c-0.2,0.3-0.4,0.6-0.3,0.9c0,0.3,0.2,0.5,0.6,0.8
	c0.5,0.5,1.1,1.1,1.3,1.5c0.1,0.2,0.1,0.4,0.2,0.7c0.1,0.4,0.3,0.3,0.4-0.3c0-0.6,0-2,0.4-2.4c0.2-0.3,0.6-0.3,0.9,0.2
	C24,21.4,24,21.5,24,21l0-1.3C24,19.5,24,19.5,23.8,19.2z M24,14.1L20.9,12L20,14.6l3,2.4L24,14.1z M44.4,28.7
	c2-0.1,2.3-0.1,4.2-0.7c1.6,3.9,2.5,4.7,4.1,2.2c1.6-2.6,2.1-6-0.7-6.3c-0.7-0.1-2.1,0.4-2.7,0.8L47.9,9.3l1.9,0.9l0.3-0.1l-3.5-6.8
	l-1,2.6l0.7,1.4L48,25.7c-3.4,0.8-4.1,1.3-6-1.7l-0.5,2.3l1.4,2.7l0.6,1.7c-1.7,2.5-3.7,4-6.3,5.6c-2.8,1.7-5.9,2.8-8.3,1.2
	c-1.1-0.7-1.8-1.8-2-3c-0.5-2.3,1.8-4.5,1.6-7.8c3.4-0.1,5.4,0,6.5-4c0.4-1.4,0.3-2.4-1.1-4.2c-0.4-0.5-0.9-0.9-2-1.8l-2.4-2
	c-0.9-0.7-2-1.5-2.9-2.3c-0.6-0.5,0.1-0.4,1.3-0.7l-2.3-2c3.7-2.3,7-4.2,11.3-5.8c8.5-3.1,4.6,0.9,2.2,7.5c1.3-2.6,4.2-7.5,4.2-10.3
	c0.1-2.1-1.6-1.3-5.1-0.2c-4.5,1.4-9.9,4.7-13.9,7.2L23.7,12c3.1,3.2,3.7,4.7,8,7.5c1,0.7,3.1,2,2,3.3c-2.1,2.4-5.4,1.9-6.6-0.9
	l-0.5-0.7l-1,2.5l0.4,1c1.2,2.8,2,3.8-0.3,6.1c-1,1-2,1.8-3.4,2.9l-1.1,0.7l-10,6.4l6.9-1l7.8-6.3c0.2,3.1,0.4,4.5,1.6,5.8
	c3,3.2,7.6,1.1,11.2-1.3C42.8,35.1,44.5,33.8,44.4,28.7z M50.6,26.2c0.4-0.3,0.9-0.3,1.5,0c1.5,0.8,0.2,2.9-1.1,2.1
	C50.3,27.8,49.9,26.9,50.6,26.2z M36.2,27c0.4-0.7,0.6-1.7-0.2-0.3c-1.1,1.9-2.2,3.4-1.9,5.4c0.3,2,1.1,2.2,1.8,1.5
	c1-0.9,1-1.9,1.2-3.2c-0.3,0.5-0.4,0.9-0.7,1.3c-1.8,1.9-1.8-0.6-1.2-2.5C35.4,28.4,35.8,27.7,36.2,27z M50.3,17.1
	c0.5,1.7,1.9,1.1,1.8-1.2c-1,2.7-2.7-0.3-0.6-4c0.7-1.2,0.3-1.5-0.8,0.8C50,14.3,49.8,15.6,50.3,17.1z M37.4,16.3
	c0.4-0.7,0.7-1.3,0.6-1.9c-0.1-1.2-1.6-1.7-2.5-2.4l0,0.5c0.1,1.2-0.5,1.7-0.5,2.7c-0.1,0.9,0.1,1.4,0.6,1.6
	C36.6,17.3,37.1,16.9,37.4,16.3z M36.3,15.9c-0.3-0.2-0.3-0.7-0.2-1.3c0-0.2,0.1-0.4,0.1-0.6c0.6,0.3,0.8,0.5,0.8,1.2
	C37,15.7,36.9,16.2,36.3,15.9z M52.4,36c0.2-0.3,0.3-0.7,0.5-1c0.2-0.5,0.2-1,0.1-1.5c-0.1-0.6-0.5-0.6-1.4-0.2
	c-0.6,0.3-0.9,0.6-1.6,1.5c-0.4,0.5-0.9,0.9-1.6,1.5c-0.8,0.7-1.5,1.1-3,1.7c-0.7,0.3-1.3,0.5-2.1,0.8L39,40l1.5-0.1
	c1.2-0.1,2.3-0.3,3.3-0.6c3.3-1,4.3-1.7,6.4-4.2C50.8,35.8,51.6,37.1,52.4,36z M51.4,34c0.4,0,0.6-0.1,0.6,0.4c0,0.3,0,0.6-0.3,0.6
	c-0.2,0-0.4-0.2-0.6-0.5C50.9,34.1,51,34,51.4,34z M149.7,35.5c0.5-0.4,0.5-0.3,0.8,0.1c1.1,1.5,1.6,1,2.3-0.3
	c0.2-0.3,0.3-0.7,0.2-1.3c-0.3-1.6-2.1-0.9-2.9,0c-0.3,0.4-0.6,0.8-0.9,1.2c-2,1.7-6.6,2.3-9.1,2.7
	C144.8,38.3,146.9,37.7,149.7,35.5z M151.4,34.1c0.4,0,0.7-0.1,0.7,0.3c0,0.3,0,0.5-0.3,0.6c-0.2,0-0.4-0.2-0.6-0.5
	C150.9,34.2,151,34.1,151.4,34.1z M57,11.1L53.3,4L52,6.1l1,1.7c0.1,2.3,0.2,4.5,0.5,6.8c0.5,3.4,1,6.8,1.5,10.3
	c0.4,2.8,0.4,5.2,0.4,8.2c1.6-3.9,1.7-4.8,1.3-8.2c-0.6-4.9-1.2-9.7-1.7-14.6l1.8,1L57,11.1z M65.3,38.6l-2.8-2.1L61,39.2l2.9,2.4
	l1.3-2.3l2.8,2.1l1.9-2.6l-3-2.5L65.3,38.6z M73.1,38.5l3,2.4l1.9-2.4l-3.3-2.5L73.1,38.5z M90.7,38.9l-3.9-2.5l-1.3,2.1l-2.9-2
	l-1.4,2.9l3.4,2.7l1.2-2.8l3.6,2.1L90.7,38.9z M66,16L86,5L87,2L67,12.9L66,16z M97.7,21c-0.7-4.4-1.8-8.8-2.1-13.3l1.3,1L98,9.4
	L94.6,2l-1.5,2.4l1.2,1.9c0,0-0.2,0.4-0.3,1.1c0,0.7,0.8,9.4,1.7,14c0.6,3,1.1,6.7-0.5,7.7c-3,1.7-2.7-2.5-2.5-3.7l-3.1,2.1
	c-4.4,2.4-7.2,3.8-10.2,0.7c-1.9-2-2.9-5.9-3.7-8.5l-0.6,3.2l1.6,3.9l0.2,0.9c-1.3,2-2.6,2.7-4.4,1.4c-0.9-0.7-0.8-1.8-0.9-3
	c-1.6,1.2-3.6,2.9-5.6,3.2c-1,0.1-1.9-0.1-2.7-1.2c-0.6-0.8-0.8-1.9-1-3.4c-0.4-2.6-0.6-5.7-0.8-7.9l-1.3-13l-1.3,3l1.3,16.2
	l0.3,2.3c0.4,2.9,0.5,4.2,1.8,5.7c1.5,1.7,2.4,2.1,3.8,1.9c2.1-0.4,2.8-1.5,3.6-2.3c0.5-0.5,0.9-1,1.1-0.3c0.2,0.5,0.3,0.7,0.4,1
	c0.3,0.6,0.7,0.9,1,1.2c1.5,1.2,2.4,0.8,3.1-0.3c0.4-0.6,0.6-1,1-1.6c0.8-1.1,1-1,1.4-0.3c0.7,1.1,1.5,1.8,2.3,2.2
	c3,1.3,5.5,0.2,7.9-1.4c0.7-0.5,1.2-1.2,2-1.3c0.5-0.1,0.6-0.1,0.8,0.3c0.5,1.3,0.9,2.1,1.9,2.1c1.7,0,2.6-1.1,3.6-2.3
	C98.2,26.4,98.2,23.8,97.7,21z M65.9,10.9c1.6,0.6,2-1.9,2.2-2.9c-0.3,0.5-1.1,2.2-1.9,1.8c-0.2-0.1-0.3-0.3-0.4-0.6
	c-0.1-0.3-0.1-0.5-0.1-1c0-1.1,0.2-1.9,0.4-3.1c-0.6,1.5-0.8,2-1,3.1C65,8.6,65,8.9,65,9.3C65.1,10.2,65.4,10.7,65.9,10.9z
	 M70.8,20.8c1.8,0.7,1.9-1.3,2.2-2.4c-0.4,0.5-1.1,1.5-1.9,1.1c-1-0.6,0-3.7,0.3-4.5C70.8,16.1,69,20.1,70.8,20.8z M90.5,24
	c0.3-0.5,0.4-1.1,0.5-1.6c-0.4,0.4-0.8,1.4-1.7,1c-1.1-0.5-0.5-3.7-0.2-4.4C86.8,22.7,88.6,27,90.5,24z M97.5,37.2
	c-1.4-0.2-0.4-4.2,0-5.2c-2.5,3.4-1.4,7.9,0.2,6.8c1-0.7,1-1.7,1.3-2.7C98.6,36.6,98.4,37.4,97.5,37.2z M112.7,19.8
	c1-0.7,1-1.7,1.3-2.7c-0.4,0.5-0.6,1.2-1.6,1.1c-1.4-0.2-0.4-4.2,0-5.2C110,16.4,111.1,20.9,112.7,19.8z M120.3,37.6
	c-1.8-0.6,0.1-4.5,0.6-5.6c-4,3.3-0.9,11.2,1.1,4.2C121.6,36.7,121.3,37.9,120.3,37.6z M139,17.1c-0.4,0.5-0.6,1.6-1.6,1.2
	c-1.3-0.5-0.5-4.2-0.1-5.3C134.2,16.7,137.6,24.1,139,17.1z M65,19.1c1.5,0.8,2.1,3,2.2,5.9c1.4-3.2,0.8-5.8-1.4-8L65,19.1z
	 M85.5,10.3c-0.1,0.4-0.1,0.9-0.1,1.4c1.2,0.6,1.6,0.8,1.8,1.7c0.2,0.8-0.8,2.5-2.1,3.9C84,18.6,82.9,19.5,81,21
	c4.7-2.5,6.3-3.8,7.6-8.6c0.3-1.2,0.9-2,1.3-0.3c0.2,0.7,0.1,0.7,0.5,0.2l0.3-0.5c0.4-0.6,0.2-0.5-0.1-1.3c-0.3-0.7-0.6-1.3-0.9-1.9
	c-0.7-1.3-1.3-0.6-1.3,0.6L88.5,11c0,1.5-0.5,1.9-1.2,0.3c-0.2-0.4-0.4-0.8-0.6-1.2C86.3,9.2,85.8,8.8,85.5,10.3z M143,20
	c6.3-2.2,7.7-3.3,8.6-8.2c0.2-1.3,0.8-2.5,1.3-0.7c0.2,0.7,0.1,0.7,0.5,0.2l0.3-0.5c0.4-0.6,0.2-0.5-0.1-1.3
	c-0.3-0.7-0.6-1.3-0.9-1.8c-0.7-1.3-1.3-0.6-1.3,0.6l-0.1,1.7c-0.1,1.9-0.8,3-1.5,0.9c-0.1-0.4-0.4-0.8-0.6-1.2
	c-0.5-0.7-1-1.2-1.3,0.3c-0.1,0.4-0.1,0.9-0.1,1.4c1.4,0.6,2.4,1.7,1.7,3.3C148.8,16.5,145.7,18.5,143,20z M144.7,32.5
	c1.4-0.8,2.1-1.6,3.4-3.1c1.1-1.3,0.9-0.9,1.6,0.1c1.7,2.5,4.8,3.8,6,0.1c0.5-1.7,0.5-3.7-0.6-5c-1.3-1.6-3.4-1.1-5.1,0.8l-1.9,2.2
	c-1.5,1.9-3.9,3.5-6.4,3.7c-1.3,0.1-1.8-0.1-0.2-1.6c1.1-1.1,2.2-2.3,2.4-4c0.2-1.6-0.5-3.1-2.2-4.1c-1.6-0.9-3.8-0.4-6.2,1.3
	c-2.7,1.9-4.7,4.9-6.5,7.6c-1.2-0.5-1.1-0.7-2-1.7c-1.8-2-3.2-3.1-6.6-2c-1.6,0.5-3,1.4-4.5,2.8c-1.2,1.1-2.2,2.3-3.6,3.7
	c-1.8,1.8-3.7,3.5-5.3,4c-1,0.3-2,0.2-2.8-0.8c-0.3-0.4-0.5-1.1-0.5-2.1c0-0.7,0.2-1.3,0.7-2.5c0.7-1.9,1.7-3.5,2.9-5.3
	c6.9,0.1,13-0.6,19.4-3.5c3.9-1.8,4.5-5.2,2.2-9.2c-0.8-1.4-1.9-2.5-3.6-3.3c-1.1-0.6-2.2-0.7-3.3,0.8c-0.6,0.8-0.7,1.9-0.9,3.5
	c-0.2,2.1,0.4,2.8,3.7,2.4c0.9-0.1,1.8-0.2,2.4-0.2c0.8,0,1.2,0.3,1.6,1.7c0.4,1.2-1.5,1.9-3.9,2.5c-5.8,1.5-10.6,2.8-16.6,2.5
	c-1.6-0.1-3.1-0.2-4.7-1.2c-2.2-1.4-2.3-3.2-1.7-7.1c1.4-1.2,2-1.3,2.6-3.1c0.2-0.6,0.2-1.1,0.3-2.2c-0.4,0.7-1.1,2-1.7,2.4
	c-0.7,0.5-1.3-0.4-1.5-1.9c-0.2-2.2,1-4.1,2-6.2c0.2-0.3-0.1-0.5-0.3-0.2c-3.1,3.8-4.2,9-2.4,10.9c-0.3,1-1.7,7,1.2,9.6
	c1.1,1.1,2.5,1.5,4,1.7c-1.2,2-2.1,3.4-2.8,5.3c-0.4,1.1-0.7,2-0.8,2.8c-0.2,1.5,0,2.7,0.6,3.6c1.2,2,3,2.3,4.7,1.6
	c1.2-0.5,3.6-2.9,5.6-5c1.7-1.8,2.4-2.5,3.6-3.3c1.8-1.2,3-1.6,3.6-1.8c3.6-1,4.6,1,6.9,3.4c-0.7,1.8-1.8,3.8-1.8,5.7
	c1-1.8,1.9-3.7,2.9-5.2C133.7,34.6,139.9,35.2,144.7,32.5z M151.4,26.7c0.8-0.9,1.5-0.9,2.4-0.1c0.7,0.6,0.9,0.9,1.1,1.5
	c0.2,0.6,0.2,0.7-0.1,0.8C153.5,29.3,149.8,28.4,151.4,26.7z M125.9,14.6c-0.2,0.3-0.8,0.4-1.4,0.3c-1.2-0.2-2.7-1.1-1.7-2.2
	C124.2,11.1,126.5,13.7,125.9,14.6z M130,30.7c3-5,7.3-7,9-6.6c0.9,0.2,1.6,0.6,2.1,1.1c1.8,1.8,0.8,2.9-0.7,3.8
	C137,30.8,134,31.4,130,30.7z M118.8,13l1.2-2.6L117.1,8l-1.1,2.5L118.8,13z M152.1,4l2-3l-17.3,8.1L135,12L152.1,4z M113.9,5.6
	L110,8c1.7-0.4,2.2-0.5,3.7-1.4c1.4-0.8,2.5-1.7,3.1-3.5c0.5-1.3,0-1.2-2.2-1.1l-3.1,0.1l-1.4,2c1.2,0,2.3,0,3.4,0.1
	C115.5,4.5,115.3,4.7,113.9,5.6z M130.7,3.3c0.3,0.3,0.5,0.4,0.7,0.5c0.5,0.4,0.5,1,0.6,1.6c0,0.7,0,0.7,0.7,0.2
	c0.9-0.6,1.1-1.1,1.2-2.2c0.2-1.3,0.9-1,1.1,0l0.1,0.6l0.9-1.5c-0.3-0.8-0.4-1.2-0.9-1.9c-0.5-0.8-1.1-1.1-1.4,0.6
	c-0.1,0.5-0.2,0.9-0.3,1.5c-0.1,0.5-0.3,1-0.8,1.4c-0.4-0.7-0.4-0.7-0.6-1.5c-0.3-1.1-0.8-2.3-1.7-1C129.8,2.4,130.1,2.8,130.7,3.3z
	 M39,17l6-4.7l0-1.3l-5.9,4.7L39,17z M25.9,39c-0.1,0.4-0.2,0.9-0.4,1.2c-1.2,1.3-1.8-0.6-1.6-1.4c0.2-1.2,1.8-3.8,0.8-2.5
	c0,0-2.1,2.4-1.5,4.5c0.5,1.5,1.7,1.4,2.3,0.8C26.3,40.7,26,40,25.9,39z M3.3,53.9c-1.2,0-2.1-1.1-2.1-2.4v0c0-1.3,0.9-2.4,2.1-2.4
	c0.7,0,1.3,0.3,1.8,0.8l0.7-0.9c-0.6-0.6-1.3-1-2.5-1C1.4,48,0,49.6,0,51.5v0C0,53.5,1.4,55,3.2,55c1.2,0,1.9-0.5,2.6-1.2L5.1,53
	C4.5,53.6,4.1,53.9,3.3,53.9z M9.9,52H13v-1.1H9.9v-1.8h3.6v-1.1H8.8v6.7h4.7v-1.1H9.9V52z M21,52.8l-3.4-4.7h-1v6.7h1.1v-4.8
	l3.5,4.8h0.9v-6.7H21V52.8z M25,49.2h2v5.6h1.1v-5.6h2v-1.1H25V49.2z M38.2,50.3L38.2,50.3c0-0.6-0.2-1.1-0.5-1.5
	c-0.4-0.4-1-0.7-1.8-0.7h-2.8v6.7h1.1v-2.4h1.4l1.5,2.4h1.3l-1.7-2.6C37.6,52,38.2,51.4,38.2,50.3z M34.2,51.5v-2.3h1.6
	c0.8,0,1.3,0.4,1.3,1.1v0c0,0.7-0.5,1.1-1.3,1.1H34.2z M43.6,48.1l-2.8,6.8H42l0.6-1.6h3l0.6,1.6h1.2l-2.8-6.8H43.6z M43.1,52.2
	l1.1-2.7l1.1,2.7H43.1z M51.4,48.1h-1.1v6.7h4.4v-1.1h-3.3V48.1z M66.2,51.4c0.5-0.3,0.9-0.7,0.9-1.5v0c0-0.5-0.1-0.8-0.4-1.1
	c-0.4-0.4-0.9-0.6-1.6-0.6h-2.8v6.7h2.9c1.4,0,2.3-0.6,2.3-1.9v0C67.4,52.1,66.9,51.6,66.2,51.4z M63.3,49.2h1.6
	c0.7,0,1.1,0.3,1.1,0.9v0c0,0.6-0.5,0.9-1.2,0.9h-1.5V49.2z M66.3,52.9c0,0.6-0.5,0.9-1.2,0.9h-1.8V52H65
	C65.9,52,66.3,52.3,66.3,52.9L66.3,52.9z M72.7,48.1l-2.8,6.8h1.1l0.6-1.6h3l0.6,1.6h1.2l-2.8-6.8H72.7z M72.1,52.2l1.1-2.7l1.1,2.7
	H72.1z M83.8,52.8l-3.4-4.7h-1v6.7h1.1v-4.8l3.5,4.8h0.9v-6.7h-1.1V52.8z M93.7,48.1h-1.4l-3,3.4v-3.4h-1.1v6.7h1.1v-2l1-1.1l2.1,3
	h1.3L91.1,51L93.7,48.1z M104.1,48c-1.9,0-3.3,1.6-3.3,3.5v0c0,1.9,1.3,3.5,3.3,3.5c1.9,0,3.3-1.6,3.3-3.5v0
	C107.4,49.6,106,48,104.1,48z M106.2,51.5c0,1.3-0.9,2.4-2.1,2.4c-1.2,0-2.1-1.1-2.1-2.4v0c0-1.3,0.9-2.4,2.1-2.4
	C105.3,49.1,106.2,50.2,106.2,51.5L106.2,51.5z M110.5,54.9h1.1v-2.7h3.2V51h-3.2v-1.8h3.6v-1.1h-4.7V54.9z M123.8,48.1h-1.1v6.7
	h4.4v-1.1h-3.3V48.1z M130.1,54.9h1.1v-6.7h-1.1V54.9z M138.7,51.4c0.5-0.3,0.9-0.7,0.9-1.5v0c0-0.5-0.1-0.8-0.4-1.1
	c-0.4-0.4-0.9-0.6-1.6-0.6h-2.8v6.7h2.9c1.4,0,2.3-0.6,2.3-1.9v0C140,52.1,139.5,51.6,138.7,51.4z M135.8,49.2h1.6
	c0.7,0,1.1,0.3,1.1,0.9v0c0,0.6-0.5,0.9-1.2,0.9h-1.5V49.2z M138.9,52.9c0,0.6-0.5,0.9-1.2,0.9h-1.8V52h1.8
	C138.4,52,138.9,52.3,138.9,52.9L138.9,52.9z M145.2,51.1l-1.8-3h-1.3l2.5,4.1v2.7h1.1v-2.7l2.5-4.1H147L145.2,51.1z M152.2,48.1
	l-2.8,6.8h1.1l0.6-1.6h3l0.6,1.6h1.2l-2.8-6.8H152.2z M151.6,52.2l1.1-2.7l1.1,2.7H151.6z"/>
</svg>
